{
  "id": "3118868",
  "name": "易优评论插件",
  "font_family": "iconfont",
  "css_prefix_text": "icon-",
  "description": "评论插件",
  "glyphs": [
    {
      "icon_id": "6337455",
      "name": "点赞",
      "font_class": "dianzan",
      "unicode": "ec7f",
      "unicode_decimal": 60543
    }
  ]
}
