{
  "id": "2123820",
  "name": "易优问答插件",
  "font_family": "iconfont",
  "css_prefix_text": "icon-",
  "description": "",
  "glyphs": [
    {
      "icon_id": "740887",
      "name": "积分规则管控2",
      "font_class": "jifenguizeguankong2",
      "unicode": "e6ae",
      "unicode_decimal": 59054
    },
    {
      "icon_id": "1217795",
      "name": "热门",
      "font_class": "remen",
      "unicode": "e62f",
      "unicode_decimal": 58927
    },
    {
      "icon_id": "14055541",
      "name": "红包",
      "font_class": "hongbao",
      "unicode": "e60d",
      "unicode_decimal": 58893
    }
  ]
}
